…
Let’s grab a numerical summary of this totalstats
breakdown by type.

kanto %>% group_by(type) %>% summarise(avg = round(mean(totalstats)), med = median(totalstats), var = round(var(totalstats)))

## # A tibble: 38 × 4
##    type              avg   med   var
##    <chr>           <dbl> <dbl> <dbl>
##  1 bug               300  205  30025
##  2 bug/flying        448  448.  5512
##  3 bug/grass         345  345   7200
##  4 bug/poison        310  305  12775
##  5 dragon            360  360   7200
##  6 dragon/flying     600  600     NA
##  7 electric          440  488.  8150
##  8 electric/flying   580  580     NA
##  9 electric/steel    395  395   9800
## 10 fairy             403  403  12800
## # … with 28 more rows
…
Compared to Kanto, the Hoenn region has pokemon with higher overall
stats. Lets check out the breakdown of totalstats once
again, as well as checking the overall summary of
totalstats.

hoenn %>% group_by(type) %>% summarise(avg = round(mean(totalstats)), med = median(totalstats), var = round(var(totalstats)))

## # A tibble: 48 × 4
##    type            avg   med   var
##    <chr>         <dbl> <dbl> <dbl>
##  1 bug             293   205 15658
##  2 bug/flying      435   454  1201
##  3 bug/ghost       236   236    NA
##  4 bug/ground      266   266    NA
##  5 bug/poison      385   385    NA
##  6 bug/water       269   269    NA
##  7 dark            368   420 17008
##  8 dark/ghost      380   380    NA
##  9 dragon          360   360  7200
## 10 dragon/flying   590   600  9100
## # … with 38 more rows
…
Once more, we’ll look at the breakdown of totalstats in
Sinnoh by type, as well as overall summary.

sinnoh %>% group_by(type) %>% summarise(avg = round(mean(totalstats)), med = median(totalstats), var = round(var(totalstats)))

## # A tibble: 48 × 4
##    type             avg   med   var
##    <chr>          <dbl> <dbl> <dbl>
##  1 bug              267   224 10433
##  2 bug/flying       414   449 14267
##  3 bug/grass        424   424    NA
##  4 dark             600   600    NA
##  5 dark/flying      505   505    NA
##  6 dark/ice         510   510    NA
##  7 dragon/ground    437   410 23033
##  8 electric         419   405 13281
##  9 electric/ghost   440   440    NA
## 10 electric/steel   535   535    NA
## # … with 38 more rows
…
